…
# get all resources for this package
resources <- list_package_resources("64b54586-6180-4485-83eb-81e8fae3b8fe")

# identify datastore resources; by default, Toronto Open Data sets datastore resource format to CSV for non-geospatial and GeoJSON for geospatial resources
datastore_resources <- filter(resources, tolower(format) %in% c('csv', 'geojson'))

# load the first datastore resource as a sample
data <- filter(datastore_resources, row_number()==1) %>% get_resource()
data
#> # A tibble: 32,000 x 18
#>     `_id` Assigned_ID `Outbreak Associated` `Age Group`   `Neighbourhood~` FSA  
#>     <int>       <int> <chr>                 <chr>         <chr>            <chr>
#>  1 180729      186960 Outbreak Associated   60 to 69 Yea~ Danforth-East Y~ M4C  
#>  2 180730      186962 Sporadic              30 to 39 Yea~ Waterfront Comm~ M5V  
#>  3 180731      186963 Sporadic              40 to 49 Yea~ Humbermede       M9M  
#>  4 180732      186964 Sporadic              30 to 39 Yea~ Englemount-Lawr~ M6A  
#>  5 180733      186965 Outbreak Associated   70 to 79 Yea~ Danforth-East Y~ M4C  
#>  6 180734      186966 Outbreak Associated   60 to 69 Yea~ Danforth-East Y~ M4C  
#>  7 180735      186967 Sporadic              30 to 39 Yea~ Westminster-Bra~ M2R  
#>  8 180736      186968 Sporadic              50 to 59 Yea~ Glenfield-Jane ~ M3L  
#>  9 180737      186969 Sporadic              60 to 69 Yea~ Westminster-Bra~ M2R  
#> 10 180738      186970 Sporadic              40 to 49 Yea~ Regent Park      M5A  
#> # ... with 31,990 more rows, and 12 more variables:
#> #   `Source of Infection` <chr>, Classification <chr>, `Episode Date` <chr>,
#> #   `Reported Date` <chr>, `Client Gender` <chr>, Outcome <chr>,
#> #   `Currently Hospitalized` <chr>, `Currently in ICU` <chr>,
#> #   `Currently Intubated` <chr>, `Ever Hospitalized` <chr>,
#> #   `Ever in ICU` <chr>, `Ever Intubated` <chr>
```
…
